{
  "timeZone": "UTC",
  "dependencies": {
  },
  "exceptionLogging": "STACKDRIVER",
  "runtimeVersion": "V8",
  "executionApi": {
    "access": "ANYONE"
  },
  "oauthScopes": [
    "https://www.googleapis.com/auth/drive",
    "https://www.googleapis.com/auth/drive.file",
    "https://www.googleapis.com/auth/forms",
    "https://www.googleapis.com/auth/spreadsheets"
  ]
}
